2021-05-18 00:08:34,282 INFO org.springframework.test.context.support.AbstractTestContextBootstrapper [main] Neither @ContextConfiguration nor @ContextHierarchy found for test class [com.gaya.tools.ToolsApplicationTest], using SpringBootContextLoader
2021-05-18 00:08:34,298 INFO org.springframework.test.context.support.AbstractContextLoader [main] Could not detect default resource locations for test class [com.gaya.tools.ToolsApplicationTest]: no resource found for suffixes {-context.xml, Context.groovy}.
2021-05-18 00:08:34,569 INFO org.springframework.test.context.support.AbstractTestContextBootstrapper [main] Loaded default TestExecutionListener class names from location [META-INF/spring.factories]: [org.springframework.boot.test.mock.mockito.MockitoTestExecutionListener, org.springframework.boot.test.mock.mockito.ResetMocksTestExecutionListener, org.springframework.boot.test.autoconfigure.restdocs.RestDocsTestExecutionListener, org.springframework.boot.test.autoconfigure.web.client.MockRestServiceServerResetTestExecutionListener, org.springframework.boot.test.autoconfigure.web.servlet.MockMvcPrintOnlyOnFailureTestExecutionListener, org.springframework.boot.test.autoconfigure.web.servlet.WebDriverTestExecutionListener, org.springframework.boot.test.autoconfigure.webservices.client.MockWebServiceServerTestExecutionListener, org.springframework.test.context.web.ServletTestExecutionListener, org.springframework.test.context.support.DirtiesContextBeforeModesTestExecutionListener, org.springframework.test.context.event.ApplicationEventsTestExecutionListener, org.springframework.test.context.support.DependencyInjectionTestExecutionListener, org.springframework.test.context.support.DirtiesContextTestExecutionListener, org.springframework.test.context.transaction.TransactionalTestExecutionListener, org.springframework.test.context.jdbc.SqlScriptsTestExecutionListener, org.springframework.test.context.event.EventPublishingTestExecutionListener, org.springframework.security.test.context.support.WithSecurityContextTestExecutionListener, org.springframework.security.test.context.support.ReactorContextTestExecutionListener]
2021-05-18 00:08:34,612 INFO org.springframework.test.context.support.AbstractTestContextBootstrapper [main] Using TestExecutionListeners: [org.springframework.test.context.web.ServletTestExecutionListener@3932c79a, org.springframework.test.context.support.DirtiesContextBeforeModesTestExecutionListener@782859e, org.springframework.test.context.event.ApplicationEventsTestExecutionListener@23f5b5dc, org.springframework.boot.test.mock.mockito.MockitoTestExecutionListener@34bde49d, org.springframework.boot.test.autoconfigure.SpringBootDependencyInjectionTestExecutionListener@1b1cfb87, org.springframework.test.context.support.DirtiesContextTestExecutionListener@821330f, org.springframework.test.context.transaction.TransactionalTestExecutionListener@6f43c82, org.springframework.test.context.jdbc.SqlScriptsTestExecutionListener@5db6b9cd, org.springframework.test.context.event.EventPublishingTestExecutionListener@210ab13f, org.springframework.security.test.context.support.WithSecurityContextTestExecutionListener@20b2475a, org.springframework.security.test.context.support.ReactorContextTestExecutionListener@7857fe2, org.springframework.boot.test.mock.mockito.ResetMocksTestExecutionListener@6f15d60e, org.springframework.boot.test.autoconfigure.restdocs.RestDocsTestExecutionListener@1be2019a, org.springframework.boot.test.autoconfigure.web.client.MockRestServiceServerResetTestExecutionListener@29d80d2b, org.springframework.boot.test.autoconfigure.web.servlet.MockMvcPrintOnlyOnFailureTestExecutionListener@58e1d9d, org.springframework.boot.test.autoconfigure.web.servlet.WebDriverTestExecutionListener@446a1e84, org.springframework.boot.test.autoconfigure.webservices.client.MockWebServiceServerTestExecutionListener@4f0f2942]
2021-05-18 00:08:35,051 INFO org.springframework.boot.StartupInfoLogger [main] Starting ToolsApplicationTest using Java 1.8.0_211 on Fred with PID 60492 (started by derfi in O:\Project\P12\la-panacee-gaya\P12_Source_Code\LaPanaceeGaya\Tools)
2021-05-18 00:08:35,053 INFO org.springframework.boot.SpringApplication [main] No active profile set, falling back to default profiles: default
2021-05-18 00:08:35,317 INFO org.springframework.boot.StartupInfoLogger [main] Started ToolsApplicationTest in 0.63 seconds (JVM running for 2.16)
